{
  "type": "service_account",
  "project_id": "sublime-wavelet-214409",
  "private_key_id": "59857cf92bdc32c31809e8fa146ee59d3436bff0",
  "private_key": "-----BEGIN PRIVATE KEY-----\nMIIEvAIBADANBgkqhkiG9w0BAQEFAASCBKYwggSiAgEAAoIBAQDOIKMaMXSyU5SL\nUTDOX5cC5ah48bYZZpqmXixmeiM8PnumfM4A//fau7X6ADooyImasDUJ02ePLYOR\nu38Z96o2wXH1asVmc+NawMi4CYIyX0lqqdnovk0FfzTn4kq8ciLI59eMAKr0Zm7w\nKsRy8kPeXPYn2hSpNvCiRR9ELZ3nOnXoXq647ZWGAcEN99ocfo0TBHUzrDupo3Di\nE5kOFVzuRobJ1+ppGCjzcmDAZJ+7dYMJo9cC7BgfZ5xXxZslLiaimh+E8vdEC7pN\nZGlbPU+1GWRjmxQM0HQQJG/7gttOW1jH3cSSQEnznWow/tet9r7NdT9JJ+7BXw3Q\nqnk9VvMjAgMBAAECggEAG4MeV01T5sa3xEND9meqf50o+BZFrezp+1wFJRsW6jWU\nyiCiW7POizK+vphFKv2z5XewvJernOAATZ/u/lz2KnTLbGxMiLjdwavgSTV2W+7S\nnRqqlna/+lnY3+fDqJS7W9bGCE5r2E8hGOE8c0iEEoE/QbZz8i9TvZ+S5XCz62a+\n0zX6Wi4IxibXWZ3Ntn3Off6ytusdwie9t4G+5ixJNkxveuLyRayxJnnT2eUTbxM/\n22JMPpmvY3JttTz8BBB1bh/BUtROdU4XL6gTFXscfaAnUXcQVl1WCtJ3coQH/y6z\nKwqIEe5g3E7NT73ETwG3o4aFiGE9uvb4nxlG6onFEQKBgQDpRyD9v/U3wfjQjbuH\nDex4eSuVj8/G4N9UkmBubNSTQ40evHda8A0UuShihbup5lx7fBywsEHfsNasI7ut\nETzhRzgQXuTfSbVCzn8hLEtpZ0rm6W8omBU/U7gl9qPK243u0RoN0i4lhI+djJ9s\nsETJ/ffXBZNQMIP03YBCqnP3xwKBgQDiNID6HRK8gRrdZ/M3yrT50Y3uhLod9qGA\nmU9bfLHA1Li65SI1lpzgvmgMrNk621w3c93nuczzJ79mBMh5UIxgV70mvVAZh9U2\npkU2xfi6rQn9XJAI9BFVeGnNqwUxU9aI4GAASsdkpJnlvIjRdUaH7IRhcqgge0ul\nt7MAl9KBxQKBgH4FGuF57bLtasjfiErxTqnWa6EkS46YtI0vdkCxMjVL7NSJ48CQ\npcBoNlTjAfpKo/NhnO4mia+aDJ55v01DXqwkmTjeyq2FWBJ7E1qMX0DVuDT+Ljqz\nzeakB3savmk8KnS1KWoF/T/vWNY3vXgt0Tt9o4HZVTegvehuMHfTNUrJAoGAbuUw\nie2w3ssoYXzxpttwp7yNKW7WU5QyjvoaBo72EcP3oGBuyfjBhgiyt+wRPyKFbgYW\ntuDG0jodQiV8JsVPXHgHGjPbTfjilT0kV3rsuo/UgupbDpig2tcCf7qk/A7O8SGW\nzu3aHMP5UsCADrfA0SgpqiBsvifT6TVKwzKrF8UCgYBeIlNy3QWSiRMHAJhwpcV9\n4QitAZKfQ+cZKksjvDESZ5whadOZsu/1sAe9Hc59NliDoFQfHG1jhcfyrjRqASIE\nZEfDfiKznAto5sTvrvad94LhsZCmD5f0YcksPNeTNT32WwvrZMYly/KEk/ogdvtG\nuCSXHfj8KOp2VEeqNUwbBw==\n-----END PRIVATE KEY-----\n",
  "client_email": "proyecto-techu@sublime-wavelet-214409.iam.gserviceaccount.com",
  "client_id": "104192472474836186666",
  "auth_uri": "https://accounts.google.com/o/oauth2/auth",
  "token_uri": "https://oauth2.googleapis.com/token",
  "auth_provider_x509_cert_url": "https://www.googleapis.com/oauth2/v1/certs",
  "client_x509_cert_url": "https://www.googleapis.com/robot/v1/metadata/x509/proyecto-techu%40sublime-wavelet-214409.iam.gserviceaccount.com"
}
